1 10 20
100 200 125
201 210 89
900 1000 174
1 10000 262
10000 20000 279
20000 30000 308
30000 40000 324
40000 50000 314
50000 60000 340
60000 70000 335
70000 80000 351
80000 90000 333
90000 100000 333
100000 110000 354
110000 120000 349
120000 130000 344
130000 140000 344
140000 150000 375
150000 160000 383
160000 170000 370
170000 180000 347
180000 190000 365
190000 200000 360
200000 210000 373
210000 220000 386
220000 230000 368
230000 240000 443
240000 250000 368
250000 260000 363
260000 270000 407
270000 280000 407
280000 290000 389
290000 300000 371
300000 310000 371
310000 320000 384
320000 330000 384
330000 340000 366
340000 350000 441
350000 360000 379
360000 370000 410
370000 380000 423
380000 390000 436
390000 400000 405
400000 410000 405
410000 420000 449
420000 430000 418
430000 440000 400
440000 450000 369
450000 460000 387
460000 470000 444
470000 480000 382
480000 490000 413
490000 500000 426
500000 510000 426
510000 520000 470
520000 530000 408
530000 540000 377
540000 550000 452
550000 560000 421
560000 570000 421
570000 580000 390
580000 590000 434
590000 600000 403
600000 610000 403
610000 620000 447
620000 630000 509
630000 640000 416
640000 650000 416
650000 660000 429
660000 670000 442
670000 680000 385
680000 690000 398
690000 700000 442
700000 710000 504
710000 720000 411
720000 730000 411
730000 740000 424
740000 750000 393
750000 760000 424
760000 770000 468
770000 780000 437
780000 790000 406
790000 800000 468
800000 810000 406
810000 820000 450
820000 830000 450
830000 840000 525
840000 850000 419
850000 860000 419
860000 870000 388
870000 880000 432
880000 890000 445
890000 900000 370
900000 910000 445
910000 920000 476
920000 930000 476
930000 940000 507
940000 950000 383
950000 960000 414
960000 970000 414
970000 980000 458
980000 990000 427
990000 999999 440
