718674 785864 468
624387 911899 525
35161 158418 383
315638 958458 525
875138 619269 525
955214 562278 525
856713 164755 525
578182 796535 509
283978 671951 509
460667 32355 449
21978 534412 470
783801 237354 509
661310 237060 509
745312 731309 424
240419 146997 443
818101 193183 509
897813 212694 525
823998 143383 509
643933 623878 509
304083 495233 449
443454 655887 509
980223 368236 525
612402 116982 470
917624 376106 525
998167 783316 525
393825 310822 441
854438 708738 525
352485 770025 509
544117 541288 364
822371 199907 509
930271 332474 525
432845 466842 444
107958 627736 509
800853 449678 509
77267 841867 525
153484 780394 509
19940 616775 470
875097 732209 525
860773 380755 525
87733 767384 509
419332 177893 449
46926 110522 354
320299 568639 470
868324 406945 525
511022 567984 470
339461 336622 366
587643 942111 525
818481 82591 509
739302 192684 509
78892 497225 449
291773 898459 525
865919 72632 525
975905 489817 525
620038 27965 470
377621 886481 525
661461 278143 509
500186 222455 449
780461 954358 525
755309 342889 509
491171 20363 449
366942 817461 509
603481 468916 470
329446 489853 449
438499 550907 470
158624 826649 509
45872 885225 525
449034 275603 449
649858 971907 525
12411 201067 383
503006 145652 449
687888 281738 509
296134 51773 443
894810 39148 525
532957 902004 525
229566 870758 525
142201 471141 449
620650 257210 470
827950 879356 525
788902 850214 525
693948 540281 509
129151 851841 525
503971 313013 449
355557 322175 441
868437 536898 525
746353 148694 509
4213 141582 354
492382 476767 413
368260 672865 509
5995 930985 525
218083 348920 443
829678 68188 509
967243 363154 525
692327 759014 504
602314 461106 470
549588 367526 470
452557 369990 449
380704 876355 525
172381 367852 443
88627 460881 449
527342 947354 525
61455 374404 443
282179 518584 470
401799 894387 525
567906 341224 470
733594 974193 525
54241 490015 449
406913 969289 525
73081 190077 383
831721 745718 468
425548 588053 470
899218 550007 525
699139 135190 509
982986 633373 525
445432 196108 449
264265 470451 449
680361 808929 504
301203 735585 509
253093 252020 319
150058 660186 509
239047 388131 441
546166 528019 408
902157 217229 525
406117 557285 470
161158 979034 525
618899 542102 452
887130 505687 525
556332 990848 525
226989 247196 443
582472 614578 434
261183 219292 443
685893 326769 509
534850 895199 525
48706 638075 509
315499 785600 509
21932 459738 449
267583 470704 449
32043 136204 354
234755 742981 509
406614 980249 525
869096 705004 525
888552 122792 525
549332 85914 470
443046 952364 525
334685 367571 441
717918 902041 525
467863 54715 449
259686 961865 525
418218 408113 449
305016 10950 443
257811 546738 470
847822 605538 525
